{
  "headers":[
    {
      "id": "KUERZEL",
      "property": "kuerzel",
      "type": "string",
      "visibleInResultTable": true,
      "weblink": false
    },
    {
      "id": "DISPLAYNAME",
      "property": "displayname",
      "type": "string",
      "visibleInResultTable": true,
      "weblink": false
    },
    {
      "id": "WEBLINK",
      "property": "weblink",
      "type": "string",
      "visibleInResultTable": true,
      "weblink": true
    },
    {
      "id": "TYP",
      "property": "typ",
      "type": "enum",
      "visibleInResultTable": true,
      "weblink": false
    },
    {
      "id": "Date",
      "property": "date",
      "type": "date",
      "visibleInResultTable": true,
      "weblink": false
    },
    {
      "id": "ID",
      "property": "id",
      "type": "long",
      "visibleInResultTable": false,
      "weblink": false
    }
  ],
	"values": [
		["ACKERSAND","KW-ACKERSAND2-AS","http://www.example.cc","konventionell","2016-01-27T11:43:27.301Z",1],
		["GTA","","http://www.example.cc","konventionell","2016-01-27T11:43:27.301Z",2],
		["LMSA","LIZERNE_MORGE-AS","","konventionell","2016-01-27T11:43:27.301Z",3],
		["","EZE-EWALTDORF-AS","http://www.example.cc","virtuell","2016-01-27T11:43:27.301Z",4],
		["KHR","KHR-AS","","konventionell","2016-01-27T11:43:27.301Z",5],
		["MAGGIA","KW-BAVONA-AS","","konventionell","2016-01-27T11:43:27.301Z",6],
		["BERGELL","SDL-BERGELL---AS","","konventionell","2016-01-27T11:43:27.301Z",7],
		["GTD","","","konventionell","2016-01-27T11:43:27.301Z",8],
		["KKB","KKB-AS","http://www.example.cc","konventionell","2016-01-27T11:43:27.301Z",9],
		["BLENIO","KW-BLENIO-AS","","konventionell","2016-01-27T11:43:27.301Z",10],
		["LEVENTINA","AET-LEVENTINA-AS","http://www.example.cc","konventionell","2016-01-27T11:43:27.301Z",11],
		["","SWISSCOM-EZE1-AS","http://www.example.cc","virtuell","2016-01-27T11:43:27.301Z",12],
		["","KW-MUOTA-AS","http://www.example.cc","konventionell","2016-01-27T11:43:27.301Z",13],
		["EM","BITSCH-AS","http://www.example.cc","konventionell","2016-01-27T11:43:27.301Z",14],
		["","BKW-EZE1-AS","http://www.example.cc","virtuell","2016-01-27T11:43:27.301Z",15],
		["PUSCHLAV","RE-PUSCHLAV-AS","","konventionell","2016-01-27T11:43:27.301Z",16],
		["MAGGIA","KW-CAVERGNO-AS","","konventionell","2016-01-27T11:43:27.301Z",17],
		["CD","BIEUDRON-AS","","konventionell","2016-01-27T11:43:27.301Z",18],
		["GD","GD-AS","","konventionell","2016-01-27T11:43:27.302Z",19],
		["","LKW-CHAM-CHAN-AS","","konventionell","2016-01-27T11:43:27.302Z",20],
		["FMC","CHANDOLINE-AS","http://www.example.cc","konventionell","2016-01-27T11:43:27.302Z",21],
		["","CORNAUx-AS","","konventionell","2016-01-27T11:43:27.302Z",22],
		["LIENNE","EL-LIENNE_SA-AS","","konventionell","2016-01-27T11:43:27.302Z",23],
		["","BATT-DIETIKON-AS","","virtuell","2016-01-27T11:43:27.302Z",24],
		["EMOSSON","KW-EMOSSON-AS","","konventionell","2016-01-27T11:43:27.302Z",25],
		["","LKW-RUPPOLD-AS","","konventionell","2016-01-27T11:43:27.302Z",26],
		["RHOWAG","KW-ERNEN--RHO-AS","","konventionell","2016-01-27T11:43:27.302Z",27],
		["KLL","KW-FAETSCHBACH-AS","","konventionell","2016-01-27T11:43:27.302Z",28],
		["","KVA-LINTH-----AS","","konventionell","2016-01-27T11:43:27.302Z",29],
		["","KW-ALBULA-AS","","konventionell","2016-01-27T11:43:27.302Z",30],
		["FMM","EGL-FMM-SDL---AS","","konventionell","2016-01-27T11:43:27.302Z",31],
		["FLUMENTHAL","KW-FLUMENTHAL-AS","","konventionell","2016-01-27T11:43:27.302Z",32],
		["KWO","KWO-INNERTKIR-AS","","konventionell","2016-01-27T11:43:27.302Z",33],
		["EES","SIMPLON-AS","","konventionell","2016-01-27T11:43:27.302Z",34],
		["","SKW-OBWALDEN-AS","","virtuell","2016-01-27T11:43:27.302Z",35],
		["SBB","SBB-GIUBIASCO-AS","","konventionell","2016-01-27T11:43:27.302Z",36],
		["REUSSKASKADE","REUSSKASKADE-AS","","konventionell","2016-01-27T11:43:27.302Z",37],
		["REUSSKASKADE","REUSSKASKADE-AS","","konventionell","2016-01-27T11:43:27.302Z",38],
		["","REUSSKASKADE-AS","","konventionell","2016-01-27T11:43:27.302Z",39],
		["KKG","KW-KKGOESGEN-AS","","konventionell","2016-01-27T11:43:27.302Z",40],
		["","SIMPLON-AS","","konventionell","2016-01-27T11:43:27.302Z",41],
		["GOUGRA","KW-GOUGRA-AS","","konventionell","2016-01-27T11:43:27.302Z",42],
		["ELIN","KW-ELIN-AS","","konventionell","2016-01-27T11:43:27.302Z",43],
		["KWO","KWO-HANDECK-AS","","konventionell","2016-01-27T11:43:27.302Z",44],
		["KLL","KLL-AS","","konventionell","2016-01-27T11:43:27.302Z",45],
		["","KVA-HINWIL-AS","","konventionell","2016-01-27T11:43:27.302Z",46],
		["KWI","KWI-PANIx-AS","","konventionell","2016-01-27T11:43:27.302Z",47],
		["","KVA-ZUCHWIL-AS","","konventionell","2016-01-27T11:43:27.302Z",48],
		["SBB","SBB-KERZERS-AS","","konventionell","2016-01-27T11:43:27.302Z",49],
		["PRAETTIGAU","RE-PRAETTIGAU-AS","","konventionell","2016-01-27T11:43:27.302Z",50],
		["KKL","KKW-LEIBSTADT-AS","","AXPO-SDV","2016-01-27T11:43:27.302Z",51],
		["","KVA-LIMECO-AS ","","konventionell","2016-01-27T11:43:27.302Z",52],
		["KWLoe","KW-LOENTSCH-AS","","konventionell","2016-01-27T11:43:27.302Z",53],
		["LOETSCHEN","KW-LOETSCHEN-AS","","konventionell","2016-01-27T11:43:27.302Z",54],
		["LUCENDRO","KW-LUCENDRO-AS","","konventionell","2016-01-27T11:43:27.302Z",55],
		["","NSA-GREENDATA-AS","","virtuell","2016-01-27T11:43:27.302Z",56],
		["KSL","KSL-MAPRAGG-AS","","konventionell","2016-01-27T11:43:27.302Z",57],
		["EKW","EGL-EKW-SDL---AS","","konventionell","2016-01-27T11:43:27.302Z",58],
		["SBB","SBB-MASSABODE-AS","","konventionell","2016-01-27T11:43:27.302Z",59],
		["SALANFE","MIEVILLE-AS","","konventionell","2016-01-27T11:43:27.302Z",60],
		["RHOWAG","KW-MOEREL-RHO-AS","","konventionell","2016-01-27T11:43:27.302Z",61],
		["","KW-MOEREL-ALE-AS","","konventionell","2016-01-27T11:43:27.302Z",62],
		["KKM","KKW-MUEHBERG-AS","","konventionell","2016-01-27T11:43:27.302Z",63],
		["KKM","","","konventionell","2016-01-27T11:43:27.302Z",64],
		["SN","","","konventionell","2016-01-27T11:43:27.302Z",65],
		["","","","konventionell","2016-01-27T11:43:27.302Z",66],
		["","NSA-V1-BG-CKW-AS","","virtuell","2016-01-27T11:43:27.302Z",67],
		["","KVA-OFTRINGEN-AS","","konventionell","2016-01-27T11:43:27.302Z",68],
		["","OMPEX-EZE1-AS","","virtuell","2016-01-27T11:43:27.302Z",69],
		["MAGGIA","KW-PECCIA-AS","","konventionell","2016-01-27T11:43:27.302Z",70],
		["","BKW-POWERFLEX-AS","","virtuell","2016-01-27T11:43:27.302Z",71],
		["","KVA-RATHAUSEN--AS","","konventionell","2016-01-27T11:43:27.302Z",72],
		["KWZ","KWZ-AS","","konventionell","2016-01-27T11:43:27.302Z",73],
		["AKW","AKW-AS","","konventionell","2016-01-27T11:43:27.302Z",74],
		["AKW","AKW-AS","","konventionell","2016-01-27T11:43:27.302Z",75],
		["","KVA-RENERGIA-AS","","konventionell","2016-01-27T11:43:27.302Z",76],
		["LAUF","LAUF-KW-AS","","virtuell","2016-01-27T11:43:27.302Z",77],
		["KWNR","RHEINFELDEN-AS","","konventionell","2016-01-27T11:43:27.302Z",78],
		["FMV","KW-RHONE--RHO-AS","","konventionell","2016-01-27T11:43:27.302Z",79],
		["MAGGIA","KW-ROBIEI-AS","","konventionell","2016-01-27T11:43:27.302Z",80],
		["MBUEND","SDL-SILS-EWZ--AS","","konventionell","2016-01-27T11:43:27.302Z",81],
		["SBB","SBB-RUPPERSWI-AS","","konventionell","2016-01-27T11:43:27.302Z",82],
		["SANETSCH","KW-SANETSCH-AS","","konventionell","2016-01-27T11:43:27.302Z",83],
		["KSL","KSL-SARELLI-AS","","konventionell","2016-01-27T11:43:27.302Z",84],
		["","KVA-SARNERAA---AS","","konventionell","2016-01-27T11:43:27.302Z",85],
		["","KW-CALANCASCA-SA","","konventionell","2016-01-27T11:43:27.302Z",86],
		["KVR","KVR-AS","","konventionell","2016-01-27T11:43:27.302Z",87],
		["SBB","SBB-SEEBACH-AS","","konventionell","2016-01-27T11:43:27.302Z",88],
		["","EGL-OIM-SDL---AS","","konventionell","2016-01-27T11:43:27.302Z",89],
		["KWM","EGL-KWM-SDL---AS","","konventionell","2016-01-27T11:43:27.302Z",90],
		["","KVA-THUN-AS","","konventionell","2016-01-27T11:43:27.302Z",91],
		["MBUEND","SDL-TOST------AS","","konventionell","2016-01-27T11:43:27.302Z",92],
		["MBUEND","SDL-TINZEN----AS","","konventionell","2016-01-27T11:43:27.302Z",93],
		["","KVA-TURGI_AS","","konventionell","2016-01-27T11:43:27.302Z",94],
		["","KW-ALTSTAFEL-AS","","konventionell","2016-01-27T11:43:27.302Z",95],
		["","KVA-TRIMMIS-AS","","konventionell","2016-01-27T11:43:27.302Z",96],
		["","IND-UTZENSTOR-AS","","konventionell","2016-01-27T11:43:27.302Z",97],
		["MAGGIA","KW-VERBANO-AS","","konventionell","2016-01-27T11:43:27.302Z",98],
		["VERZASCA","AET-VERZASCA-AS ","","konventionell","2016-01-27T11:43:27.302Z",99],
		["FMHL","VEYTAUX-AS","","konventionell","2016-01-27T11:43:27.302Z",100],
		["","WKK-IWB-AS","","konventionell","2016-01-27T11:43:27.302Z",101],
		["","SDL-WETTINGEN-AS","","konventionell","2016-01-27T11:43:27.302Z",102],
		["SBB","SBB-WIMMIS-AS","","konventionell","2016-01-27T11:43:27.302Z",103],
		["Kuerzel Megatolle EZE","EZE_Displaynametest","http://altstadt-orchester.ch","virtuell","2016-01-27T11:43:27.302Z",104],
		["Notstromgruppe_Kuerzeltest2","Notstromgruppe_Displaynametest2","Notstromgruppe_Weblinktest2","Notstromgruppe_Typtest2","2016-01-27T11:43:27.302Z",105],
		["","","","","2016-01-27T11:43:27.302Z",106],
		["teste","teste","","konventionell","2016-01-27T11:43:27.302Z",107],
		["test","test","","konventionell","2016-01-27T11:43:27.302Z",108],
		["bla","bla","","konventionell","2016-01-27T11:43:27.302Z",109],
		["EZE1 EIC_Test","","","konventionell","2016-01-27T11:43:27.302Z",110],
		["EZE2 EIC_Test","","","konventionell","2016-01-27T11:43:27.302Z",111],
		["EZE3 EIC_Test","","","konventionell","2016-01-27T11:43:27.302Z",112],
		["EZE1 EIC_Test","","","konventionell","2016-01-27T11:43:27.303Z",113],
		["versuch1","versuch1","","virtuell","2016-01-27T11:43:27.303Z",114],
		["test","test","","konventionell","2016-01-27T11:43:27.303Z",115],
		["Kürzel","Displayname","https://kwsd-dev.mimacom.com","konventionell","2016-01-27T11:43:27.303Z",116],
		["Sv.SG Test","Sv.SG Test","","konventionell","2016-01-27T11:43:27.303Z",117],
		["","","","konventionell","2016-01-27T11:43:27.303Z",118]
	]
}