{
    "headers":[
      {
        "id": "KUERZEL",
        "property": "kuerzel",
        "type": "string",
        "visibleInResultTable": true,
        "weblink": false
      },
      {
        "id": "DISPLAYNAME",
        "property": "displayname",
        "type": "string",
        "visibleInResultTable": true,
        "weblink": false
      },
      {
        "id": "WEBLINK",
        "property": "weblink",
        "type": "string",
        "visibleInResultTable": true,
        "weblink": true
      },
      {
        "id": "TYP",
        "property": "typ",
        "type": "enum",
        "visibleInResultTable": true,
        "weblink": false
      },
      {
        "id": "ID",
        "property": "id",
        "type": "long",
        "visibleInResultTable": false,
        "weblink": false
      }
    ],
    "values":[
      ["ACKERSAND","KW-ACKERSAND2-AS","http://www.example.cc","konventionell",1],
      ["GTA","","http://www.example.cc","konventionell",2],
      ["LMSA","LIZERNE_MORGE-AS","http://www.example.cc","konventionell",3],
      ["","EZE-EWALTDORF-AS","http://www.example.cc","virtuell",4],
      ["KHR","KHR-AS","http://www.example.cc","konventionell",5],
      ["MAGGIA","KW-BAVONA-AS","http://www.example.cc","konventionell",6],
      ["BERGELL","SDL-BERGELL---AS","http://www.example.cc","konventionell",7],
      ["GTD","","http://www.example.cc","konventionell",8],
      ["KKB","KKB-AS","http://www.example.cc","konventionell",9],
      ["BLENIO","KW-BLENIO-AS","http://www.example.cc","konventionell",10],
      ["LEVENTINA","AET-LEVENTINA-AS ","http://www.example.cc","konventionell",11],
      ["","SWISSCOM-EZE1-AS","http://www.example.cc","virtuell",12],
      ["","KW-MUOTA-AS","http://www.example.cc","konventionell",13],
      ["EM","BITSCH-AS","http://www.example.cc","konventionell",14],
      ["","BKW-EZE1-AS","http://www.example.cc","virtuell",15],
      ["PUSCHLAV","RE-PUSCHLAV-AS","http://www.example.cc","konventionell",16],
      ["MAGGIA","KW-CAVERGNO-AS","http://www.example.cc","konventionell",17],
      ["CD","BIEUDRON-AS","http://www.example.cc","konventionell",18],
      ["GD","GD-AS","http://www.example.cc","konventionell",19],
      ["","LKW-CHAM-CHAN-AS","http://www.example.cc","konventionell",20],
      ["FMC","CHANDOLINE-AS","http://www.example.cc","konventionell",21],
      ["","CORNAUx-AS","http://www.example.cc","konventionell",22],
      ["LIENNE","EL-LIENNE_SA-AS","http://www.example.cc","konventionell",23],
      ["","BATT-DIETIKON-AS","http://www.example.cc","virtuell",24],
      ["EMOSSON","KW-EMOSSON-AS","http://www.example.cc","konventionell",25],
      ["","LKW-RUPPOLD-AS","http://www.example.cc","konventionell",26],
      ["RHOWAG","KW-ERNEN--RHO-AS","http://www.example.cc","konventionell",27],
      ["KLL","KW-FAETSCHBACH-AS","http://www.example.cc","konventionell",28],
      ["","KVA-LINTH-----AS","http://www.example.cc","konventionell",29],
      ["","KW-ALBULA-AS","http://www.example.cc","konventionell",30],
      ["FMM","EGL-FMM-SDL---AS","http://www.example.cc","konventionell",31],
      ["FLUMENTHAL","KW-FLUMENTHAL-AS","http://www.example.cc","konventionell",32],
      ["KWO","KWO-INNERTKIR-AS","http://www.example.cc","konventionell",33],
      ["EES","SIMPLON-AS","http://www.example.cc","konventionell",34],
      ["","SKW-OBWALDEN-AS","http://www.example.cc","virtuell",35],
      ["SBB","SBB-GIUBIASCO-AS","http://www.example.cc","konventionell",36],
      ["REUSSKASKADE","REUSSKASKADE-AS","http://www.example.cc","konventionell",37],
      ["REUSSKASKADE","REUSSKASKADE-AS","http://www.example.cc","konventionell",38],
      ["","REUSSKASKADE-AS","http://www.example.cc","konventionell",39],
      ["KKG","KW-KKGOESGEN-AS","http://www.example.cc","konventionell",40],
      ["","SIMPLON-AS","http://www.example.cc","konventionell",41],
      ["GOUGRA","KW-GOUGRA-AS","http://www.example.cc","konventionell",42],
      ["ELIN","KW-ELIN-AS","http://www.example.cc","konventionell",43],
      ["KWO","KWO-HANDECK-AS","http://www.example.cc","konventionell",44],
      ["KLL","KLL-AS","http://www.example.cc","konventionell",45],
      ["","KVA-HINWIL-AS","http://www.example.cc","konventionell",46],
      ["KWI","KWI-PANIx-AS","http://www.example.cc","konventionell",47],
      ["","KVA-ZUCHWIL-AS","http://www.example.cc","konventionell",48],
      ["SBB","SBB-KERZERS-AS","http://www.example.cc","konventionell",49],
      ["PRAETTIGAU","RE-PRAETTIGAU-AS","http://www.example.cc","konventionell",50],
      ["KKL","KKW-LEIBSTADT-AS","http://www.example.cc","AXPO-SDV",51],
      ["","KVA-LIMECO-AS ","http://www.example.cc","konventionell",52],
      ["KWLoe","KW-LOENTSCH-AS","http://www.example.cc","konventionell",53],
      ["LOETSCHEN","KW-LOETSCHEN-AS","http://www.example.cc","konventionell",54],
      ["LUCENDRO","KW-LUCENDRO-AS","http://www.example.cc","konventionell",55],
      ["","NSA-GREENDATA-AS","http://www.example.cc","virtuell",56],
      ["KSL","KSL-MAPRAGG-AS","http://www.example.cc","konventionell",57],
      ["EKW","EGL-EKW-SDL---AS","http://www.example.cc","konventionell",58],
      ["SBB","SBB-MASSABODE-AS","http://www.example.cc","konventionell",59],
      ["SALANFE","MIEVILLE-AS","http://www.example.cc","konventionell",60],
      ["RHOWAG","KW-MOEREL-RHO-AS","http://www.example.cc","konventionell",61],
      ["","KW-MOEREL-ALE-AS","http://www.example.cc","konventionell",62],
      ["KKM","KKW-MUEHBERG-AS","http://www.example.cc","konventionell",63],
      ["KKM","","http://www.example.cc","konventionell",64],
      ["SN","","http://www.example.cc","konventionell",65],
      ["","","http://www.example.cc","konventionell",66],
      ["","NSA-V1-BG-CKW-AS","http://www.example.cc","virtuell",67],
      ["","KVA-OFTRINGEN-AS","http://www.example.cc","konventionell",68],
      ["","OMPEX-EZE1-AS","http://www.example.cc","virtuell",69],
      ["MAGGIA","KW-PECCIA-AS","http://www.example.cc","konventionell",70],
      ["","BKW-POWERFLEX-AS","http://www.example.cc","virtuell",71],
      ["","KVA-RATHAUSEN--AS","http://www.example.cc","konventionell",72],
      ["KWZ","KWZ-AS","http://www.example.cc","konventionell",73],
      ["AKW","AKW-AS","http://www.example.cc","konventionell",74],
      ["AKW","AKW-AS","http://www.example.cc","konventionell",75],
      ["","KVA-RENERGIA-AS","http://www.example.cc","konventionell",76],
      ["LAUF","LAUF-KW-AS","http://www.example.cc","virtuell",77],
      ["KWNR","RHEINFELDEN-AS","http://www.example.cc","konventionell",78],
      ["FMV","KW-RHONE--RHO-AS","http://www.example.cc","konventionell",79],
      ["MAGGIA","KW-ROBIEI-AS","http://www.example.cc","konventionell",80],
      ["MBUEND","SDL-SILS-EWZ--AS","http://www.example.cc","konventionell",81],
      ["SBB","SBB-RUPPERSWI-AS","http://www.example.cc","konventionell",82],
      ["SANETSCH","KW-SANETSCH-AS","http://www.example.cc","konventionell",83],
      ["KSL","KSL-SARELLI-AS","http://www.example.cc","konventionell",84],
      ["","KVA-SARNERAA---AS","http://www.example.cc","konventionell",85],
      ["","KW-CALANCASCA-SA","http://www.example.cc","konventionell",86],
      ["KVR","KVR-AS","http://www.example.cc","konventionell",87],
      ["SBB","SBB-SEEBACH-AS","http://www.example.cc","konventionell",88],
      ["","EGL-OIM-SDL---AS","http://www.example.cc","konventionell",89],
      ["KWM","EGL-KWM-SDL---AS","http://www.example.cc","konventionell",90],
      ["","KVA-THUN-AS","http://www.example.cc","konventionell",91],
      ["MBUEND","SDL-TOST------AS","http://www.example.cc","konventionell",92],
      ["MBUEND","SDL-TINZEN----AS","http://www.example.cc","konventionell",93],
      ["","KVA-TURGI_AS","http://www.example.cc","konventionell",94],
      ["","KW-ALTSTAFEL-AS","http://www.example.cc","konventionell",95],
      ["","KVA-TRIMMIS-AS","http://www.example.cc","konventionell",96],
      ["","IND-UTZENSTOR-AS","http://www.example.cc","konventionell",97],
      ["MAGGIA","KW-VERBANO-AS","http://www.example.cc","konventionell",98],
      ["VERZASCA","AET-VERZASCA-AS ","http://www.example.cc","konventionell",99],
      ["FMHL","VEYTAUX-AS","http://www.example.cc","konventionell",100],
      ["","WKK-IWB-AS","http://www.example.cc","konventionell",101],
      ["","SDL-WETTINGEN-AS","http://www.example.cc","konventionell",102],
      ["SBB","SBB-WIMMIS-AS","http://www.example.cc","konventionell",103],
      ["Kuerzel Megatolle EZE","EZE_Displaynametest","http://www.example.cc","virtuell",104],
      ["Notstromgruppe_Kuerzeltest2","Notstromgruppe_Displaynametest2","http://www.example.cc","Notstromgruppe_Typtest2",105],
      ["","","http://www.example.cc","",106],
      ["teste","teste","http://www.example.cc","konventionell",107],
      ["test","test","http://www.example.cc","konventionell",108],
      ["bla","bla","http://www.example.cc","konventionell",109],
      ["EZE1 EIC_Test","","http://www.example.cc","konventionell",110],
      ["EZE2 EIC_Test","","http://www.example.cc","konventionell",111],
      ["EZE3 EIC_Test","","http://www.example.cc","konventionell",112],
      ["EZE1 EIC_Test","","http://www.example.cc","konventionell",113],
      ["versuch1","versuch1","http://www.example.cc","virtuell",114],
      ["test","test","http://www.example.cc","konventionell",115],
      ["Kürzel","Displayname","http://www.example.cc","konventionell",116],
      ["Sv.SG Test","Sv.SG Test","http://www.example.cc","konventionell",117],
      ["","","http://www.example.cc","konventionell",118]
    ]
  
}
